…
    ## Rows: 52179 Columns: 12
    ## ── Column specification ────────────────────────────────────────────────────────
    ## Delimiter: ","
    ## chr (9): uid, victim_last, victim_first, victim_race, victim_age, victim_sex...
    ## dbl (3): reported_date, lat, lon
    ## 
    ## ℹ Use `spec()` to retrieve the full column specification for this data.
    ## ℹ Specify the column types or set `show_col_types = FALSE` to quiet this message.

``` r
homicide_data
```

    ## # A tibble: 52,179 × 12
    ##    uid   repor…¹ victi…² victi…³ victi…⁴ victi…⁵ victi…⁶ city  state   lat   lon
    ##    <chr>   <dbl> <chr>   <chr>   <chr>   <chr>   <chr>   <chr> <chr> <dbl> <dbl>
    ##  1 Alb-…  2.01e7 GARCIA  JUAN    Hispan… 78      Male    Albu… NM     35.1 -107.
    ##  2 Alb-…  2.01e7 MONTOYA CAMERON Hispan… 17      Male    Albu… NM     35.1 -107.
    ##  3 Alb-…  2.01e7 SATTER… VIVIANA White   15      Female  Albu… NM     35.1 -107.
    ##  4 Alb-…  2.01e7 MENDIO… CARLOS  Hispan… 32      Male    Albu… NM     35.1 -107.
    ##  5 Alb-…  2.01e7 MULA    VIVIAN  White   72      Female  Albu… NM     35.1 -107.
    ##  6 Alb-…  2.01e7 BOOK    GERALD… White   91      Female  Albu… NM     35.2 -107.
    ##  7 Alb-…  2.01e7 MALDON… DAVID   Hispan… 52      Male    Albu… NM     35.1 -107.
    ##  8 Alb-…  2.01e7 MALDON… CONNIE  Hispan… 52      Female  Albu… NM     35.1 -107.
    ##  9 Alb-…  2.01e7 MARTIN… GUSTAVO White   56      Male    Albu… NM     35.1 -107.
    ## 10 Alb-…  2.01e7 HERRERA ISRAEL  Hispan… 43      Male    Albu… NM     35.1 -107.
    ## # … with 52,169 more rows, 1 more variable: disposition <chr>, and abbreviated
    ## #   variable names ¹​reported_date, ²​victim_last, ³​victim_first, ⁴​victim_race,
    ## #   ⁵​victim_age, ⁶​victim_sex
…
    ## [1] 26505

``` r
total_homicides =
  homicide %>%
  group_by(city_state) %>%  
  summarize(
    n_obs = n()) %>%
  arrange(desc(n_obs))
total_homicides
```

    ## # A tibble: 50 × 2
    ##    city_state       n_obs
    ##    <chr>            <int>
    ##  1 Chicago, IL       5535
    ##  2 Philadelphia, PA  3037
    ##  3 Houston, TX       2942
    ##  4 Baltimore, MD     2827
    ##  5 Detroit, MI       2519
    ##  6 Los Angeles, CA   2257
    ##  7 St. Louis, MO     1677
    ##  8 Dallas, TX        1567
    ##  9 Memphis, TN       1514
    ## 10 New Orleans, LA   1434
    ## # … with 40 more rows

``` r
unsoved_homicides = 
  homicide %>%
  filter(disposition_situation == "unsolved") %>%
  group_by(city_state) %>%  
  summarize(
    n_obs = n()) %>%
  arrange(desc(n_obs))
unsoved_homicides
```

    ## # A tibble: 50 × 2
    ##    city_state       n_obs
    ##    <chr>            <int>
    ##  1 Chicago, IL       4073
    ##  2 Baltimore, MD     1825
    ##  3 Houston, TX       1493
    ##  4 Detroit, MI       1482
    ##  5 Philadelphia, PA  1360
    ##  6 Los Angeles, CA   1106
    ##  7 New Orleans, LA    930
    ##  8 St. Louis, MO      905
    ##  9 Dallas, TX         754
    ## 10 Jacksonville, FL   597
    ## # … with 40 more rows
